<?xml version="1.0" encoding="iso-8859-1"?>
<!-- Generator: Adobe Illustrator 19.0.0, SVG Export Plug-In . SVG Version: 6.00 Build 0)  -->
<svg version="1.1" id="Capa_1" xmlns="http://www.w3.org/2000/svg" xmlns:xlink="http://www.w3.org/1999/xlink" x="0px" y="0px"
	 viewBox="0 0 512 512" style="enable-background:new 0 0 512 512;" xml:space="preserve">
<g>
	<g>
		<g>
			<path d="M417.002,179.998c38.596,0,69.996-31.402,69.996-70c0-35.855-27.102-65.482-61.891-69.516
				c1.223-3.266,1.895-6.797,1.895-10.484C427.002,13.457,413.545,0,397.006,0h-282.01C98.457,0,85.002,13.457,85.002,29.998
				c0,3.688,0.672,7.219,1.894,10.484c-34.791,4.033-61.894,33.66-61.894,69.516c0,38.598,31.402,70,70,70
				c3.391,0,6.721-0.256,9.984-0.725l0.008,22.443c-11.635,4.129-19.992,15.244-19.992,28.277c0,13.037,8.359,24.154,19.998,28.281
				V502c0,5.523,4.479,10,10,10h282c5.522,0,10-4.477,10-10V258.275c11.639-4.125,20.002-15.242,20.002-28.281
				c0-13.037-8.363-24.154-20.002-28.279v-22.443C410.268,179.742,413.605,179.998,417.002,179.998z M114.996,20h282.01
				c5.512,0,9.996,4.484,9.996,9.998c0,5.514-4.484,10-9.996,10h-282.01c-5.512,0-9.994-4.486-9.994-10
				C105.002,24.484,109.484,20,114.996,20z M266,492h-19.998V315.994c0-5.512,4.484-9.996,9.998-9.996c5.514,0,10,4.484,10,9.996
				V492z M387,492h-61V315.994c0-5.512,4.486-9.996,10-9.996c5.514,0,9.998,4.484,9.998,9.996v41.967v51.035c0,5.523,4.479,10,10,10
				c5.523,0,10-4.477,10-10v-51.035v-41.967c0-16.539-13.457-29.996-29.998-29.996c-16.543,0-30,13.457-30,29.996V492h-20V315.994
				c0-16.539-13.457-29.996-30-29.996c-16.541,0-29.998,13.457-29.998,29.996V492H206V315.994c0-16.539-13.457-29.996-30-29.996
				c-16.543,0-30,13.457-30,29.996v41.967v51.035c0,5.523,4.479,10,10,10c5.523,0,10-4.477,10-10v-51.035v-41.967
				c0-5.512,4.486-9.996,10-9.996c5.514,0,10,4.484,10,9.996V492h-61V259.994h262V492z M407.002,229.994c0,5.514-4.484,10-9.996,10
				h-282.01c-5.512,0-9.994-4.486-9.994-10c0-5.514,4.482-9.998,9.994-9.998c0.002,0,0.004,0,0.004,0h282.006
				C402.518,219.996,407.002,224.48,407.002,229.994z M164.27,99.998l183.463-0.002c-0.477,3.303-0.73,6.641-0.73,10.002
				c0,27.865,16.371,51.975,39.998,63.23v26.768H387H124.992l-0.01-26.758c23.639-11.252,40.02-35.367,40.02-63.24
				C165.002,106.639,164.748,103.301,164.27,99.998z M367.002,109.998c0-5.689,0.963-11.297,2.861-16.67
				c0.016-0.045,0.025-0.092,0.041-0.137c0.065-0.195,0.123-0.395,0.176-0.596c0.037-0.133,0.072-0.266,0.104-0.398
				c0.037-0.168,0.068-0.34,0.098-0.51c0.029-0.174,0.059-0.346,0.078-0.52c0.016-0.133,0.025-0.27,0.035-0.404
				c0.018-0.209,0.029-0.418,0.033-0.625c0-0.049,0.006-0.094,0.006-0.143c0-0.074-0.01-0.146-0.012-0.223
				c-0.004-0.209-0.014-0.418-0.031-0.627c-0.012-0.139-0.027-0.273-0.045-0.41c-0.024-0.18-0.049-0.357-0.082-0.533
				c-0.029-0.164-0.063-0.324-0.1-0.484c-0.035-0.145-0.07-0.289-0.111-0.432c-0.051-0.18-0.106-0.357-0.166-0.531
				c-0.043-0.125-0.088-0.246-0.135-0.369c-0.07-0.18-0.145-0.359-0.225-0.535c-0.055-0.117-0.109-0.232-0.168-0.348
				c-0.084-0.168-0.172-0.332-0.266-0.494c-0.07-0.123-0.145-0.244-0.221-0.363c-0.092-0.145-0.186-0.285-0.283-0.424
				c-0.094-0.133-0.191-0.262-0.291-0.389c-0.094-0.119-0.188-0.234-0.285-0.348c-0.115-0.137-0.236-0.27-0.361-0.398
				c-0.094-0.1-0.189-0.195-0.289-0.291c-0.133-0.129-0.272-0.254-0.414-0.377c-0.103-0.09-0.209-0.176-0.316-0.262
				c-0.141-0.111-0.285-0.219-0.434-0.322c-0.125-0.09-0.252-0.174-0.381-0.258c-0.137-0.086-0.273-0.17-0.414-0.25
				c-0.158-0.092-0.318-0.176-0.48-0.258c-0.123-0.063-0.244-0.121-0.371-0.178c-0.19-0.086-0.383-0.164-0.578-0.238
				c-0.07-0.027-0.137-0.06-0.209-0.086c-0.045-0.018-0.092-0.025-0.139-0.041c-0.193-0.066-0.391-0.123-0.59-0.176
				c-0.135-0.037-0.27-0.074-0.406-0.105c-0.164-0.037-0.332-0.066-0.5-0.096c-0.176-0.029-0.352-0.059-0.529-0.08
				c-0.129-0.016-0.262-0.025-0.393-0.035c-0.213-0.016-0.426-0.029-0.639-0.031c-0.047-0.002-0.09-0.008-0.137-0.008
				l-208.865,0.002c-0.039,0-0.076,0.006-0.115,0.006c-0.23,0.004-0.463,0.016-0.693,0.035c-0.113,0.01-0.227,0.018-0.338,0.029
				c-0.197,0.023-0.393,0.057-0.59,0.09c-0.146,0.027-0.293,0.053-0.438,0.084c-0.156,0.035-0.314,0.078-0.471,0.121
				c-0.176,0.049-0.35,0.098-0.521,0.156c-0.055,0.018-0.111,0.029-0.166,0.049c-0.086,0.029-0.164,0.07-0.25,0.102
				c-0.172,0.066-0.342,0.135-0.51,0.211c-0.146,0.066-0.291,0.137-0.434,0.209c-0.141,0.07-0.281,0.145-0.418,0.223
				c-0.16,0.092-0.316,0.188-0.469,0.285c-0.111,0.072-0.221,0.145-0.328,0.221c-0.166,0.115-0.326,0.236-0.482,0.361
				c-0.092,0.072-0.18,0.146-0.27,0.221c-0.156,0.135-0.309,0.273-0.457,0.416c-0.084,0.082-0.166,0.166-0.248,0.25
				c-0.137,0.143-0.27,0.289-0.398,0.439c-0.086,0.1-0.17,0.203-0.252,0.307c-0.109,0.141-0.217,0.283-0.32,0.428
				c-0.088,0.127-0.174,0.256-0.256,0.387c-0.086,0.131-0.166,0.264-0.244,0.4c-0.086,0.15-0.168,0.303-0.248,0.459
				c-0.063,0.127-0.125,0.254-0.184,0.383c-0.074,0.166-0.145,0.334-0.211,0.504c-0.053,0.131-0.1,0.264-0.146,0.396
				c-0.057,0.168-0.109,0.336-0.158,0.508c-0.043,0.15-0.08,0.301-0.115,0.453c-0.037,0.154-0.07,0.309-0.098,0.467
				c-0.035,0.182-0.061,0.363-0.084,0.545c-0.018,0.135-0.033,0.268-0.045,0.402c-0.018,0.211-0.027,0.42-0.031,0.631
				c-0.002,0.074-0.012,0.148-0.012,0.223c0,0.049,0.008,0.094,0.008,0.143c0.002,0.205,0.016,0.412,0.031,0.619
				c0.01,0.139,0.02,0.277,0.037,0.414c0.02,0.168,0.047,0.336,0.076,0.506c0.029,0.176,0.061,0.352,0.1,0.525
				c0.029,0.125,0.064,0.252,0.098,0.379c0.057,0.209,0.115,0.414,0.184,0.619c0.016,0.041,0.023,0.084,0.039,0.125
				c1.898,5.373,2.861,10.98,2.861,16.67c0,27.57-22.43,50-50,50c-27.57,0-50-22.43-50-50s22.43-50,50-50h19.994h282.01h19.996
				c27.568,0,49.996,22.43,49.996,50s-22.428,50-49.996,50C389.432,159.998,367.002,137.568,367.002,109.998z"/>
			<path d="M95.002,79.998c-16.543,0-30,13.457-30,30c0,16.541,13.457,29.998,30,29.998c16.543,0,30-13.457,30-29.998
				C125.002,93.455,111.545,79.998,95.002,79.998z M95.002,119.996c-5.514,0-10-4.484-10-9.998c0-5.514,4.486-10,10-10
				c5.514,0,10,4.486,10,10C105.002,115.512,100.516,119.996,95.002,119.996z"/>
			<path d="M447.002,109.998c0-16.543-13.457-30-30-30c-16.543,0-30,13.457-30,30c0,16.541,13.457,29.998,30,29.998
				C433.545,139.996,447.002,126.539,447.002,109.998z M407.002,109.998c0-5.514,4.486-10,10-10c5.514,0,10,4.486,10,10
				c0,5.514-4.486,9.998-10,9.998C411.488,119.996,407.002,115.512,407.002,109.998z"/>
			<path d="M201.771,179.998h108.461c5.521,0,10-4.478,10-10c0-5.523-4.478-10-10-10H201.771c-5.523,0-10,4.477-10,10
				C191.771,175.52,196.248,179.998,201.771,179.998z"/>
			<path d="M216,139.996h0.236c5.521,0,10-4.476,10-10c0-5.521-4.479-10-10-10H216c-5.521,0-10,4.479-10,10
				C206,135.52,210.479,139.996,216,139.996z"/>
			<path d="M244.965,139.996H296c5.523,0,10-4.476,10-10c0-5.521-4.477-10-10-10h-51.035c-5.521,0-10,4.479-10,10
				C234.965,135.52,239.443,139.996,244.965,139.996z"/>
			<path d="M355.996,427.728c-5.521,0-10,4.479-10,10v0.236c0,5.521,4.479,10,10,10c5.523,0,10-4.479,10-10v-0.236
				C365.996,432.207,361.52,427.728,355.996,427.728z"/>
			<path d="M156.002,447.964c5.523,0,10-4.479,10-10v-0.236c0-5.521-4.477-10-10-10c-5.521,0-10,4.479-10,10v0.236
				C146.002,443.485,150.481,447.964,156.002,447.964z"/>
		</g>
	</g>
</g>
<g>
</g>
<g>
</g>
<g>
</g>
<g>
</g>
<g>
</g>
<g>
</g>
<g>
</g>
<g>
</g>
<g>
</g>
<g>
</g>
<g>
</g>
<g>
</g>
<g>
</g>
<g>
</g>
<g>
</g>
</svg>
